{
 "options": [
  [
   "libiconv:shared",
   "False"
  ],
  [
   "libxml2:c14n",
   "True"
  ],
  [
   "libxml2:catalog",
   "True"
  ],
  [
   "libxml2:docbook",
   "True"
  ],
  [
   "libxml2:ftp",
   "True"
  ],
  [
   "libxml2:html",
   "True"
  ],
  [
   "libxml2:http",
   "True"
  ],
  [
   "libxml2:iconv",
   "True"
  ],
  [
   "libxml2:icu",
   "False"
  ],
  [
   "libxml2:include_utils",
   "True"
  ],
  [
   "libxml2:iso8859x",
   "True"
  ],
  [
   "libxml2:legacy",
   "True"
  ],
  [
   "libxml2:lzma",
   "False"
  ],
  [
   "libxml2:mem-debug",
   "False"
  ],
  [
   "libxml2:output",
   "True"
  ],
  [
   "libxml2:pattern",
   "True"
  ],
  [
   "libxml2:push",
   "True"
  ],
  [
   "libxml2:python",
   "False"
  ],
  [
   "libxml2:reader",
   "True"
  ],
  [
   "libxml2:regexps",
   "True"
  ],
  [
   "libxml2:run-debug",
   "False"
  ],
  [
   "libxml2:sax1",
   "True"
  ],
  [
   "libxml2:schemas",
   "True"
  ],
  [
   "libxml2:schematron",
   "True"
  ],
  [
   "libxml2:shared",
   "True"
  ],
  [
   "libxml2:threads",
   "True"
  ],
  [
   "libxml2:tree",
   "True"
  ],
  [
   "libxml2:valid",
   "True"
  ],
  [
   "libxml2:writer",
   "True"
  ],
  [
   "libxml2:xinclude",
   "True"
  ],
  [
   "libxml2:xpath",
   "True"
  ],
  [
   "libxml2:xptr",
   "True"
  ],
  [
   "libxml2:zlib",
   "True"
  ],
  [
   "openssl:386",
   "False"
  ],
  [
   "openssl:capieng_dialog",
   "False"
  ],
  [
   "openssl:enable_capieng",
   "False"
  ],
  [
   "openssl:enable_weak_ssl_ciphers",
   "False"
  ],
  [
   "openssl:no_aria",
   "False"
  ],
  [
   "openssl:no_asm",
   "False"
  ],
  [
   "openssl:no_async",
   "False"
  ],
  [
   "openssl:no_bf",
   "False"
  ],
  [
   "openssl:no_blake2",
   "False"
  ],
  [
   "openssl:no_camellia",
   "False"
  ],
  [
   "openssl:no_cast",
   "False"
  ],
  [
   "openssl:no_chacha",
   "False"
  ],
  [
   "openssl:no_cms",
   "False"
  ],
  [
   "openssl:no_comp",
   "False"
  ],
  [
   "openssl:no_ct",
   "False"
  ],
  [
   "openssl:no_deprecated",
   "False"
  ],
  [
   "openssl:no_des",
   "False"
  ],
  [
   "openssl:no_dgram",
   "False"
  ],
  [
   "openssl:no_dh",
   "False"
  ],
  [
   "openssl:no_dsa",
   "False"
  ],
  [
   "openssl:no_dso",
   "False"
  ],
  [
   "openssl:no_ec",
   "False"
  ],
  [
   "openssl:no_ecdh",
   "False"
  ],
  [
   "openssl:no_ecdsa",
   "False"
  ],
  [
   "openssl:no_engine",
   "False"
  ],
  [
   "openssl:no_filenames",
   "False"
  ],
  [
   "openssl:no_gost",
   "False"
  ],
  [
   "openssl:no_hmac",
   "False"
  ],
  [
   "openssl:no_idea",
   "False"
  ],
  [
   "openssl:no_md4",
   "False"
  ],
  [
   "openssl:no_md5",
   "False"
  ],
  [
   "openssl:no_mdc2",
   "False"
  ],
  [
   "openssl:no_ocsp",
   "False"
  ],
  [
   "openssl:no_pinshared",
   "False"
  ],
  [
   "openssl:no_rc2",
   "False"
  ],
  [
   "openssl:no_rfc3779",
   "False"
  ],
  [
   "openssl:no_rmd160",
   "False"
  ],
  [
   "openssl:no_rsa",
   "False"
  ],
  [
   "openssl:no_seed",
   "False"
  ],
  [
   "openssl:no_sha",
   "False"
  ],
  [
   "openssl:no_sm2",
   "False"
  ],
  [
   "openssl:no_sm3",
   "False"
  ],
  [
   "openssl:no_sm4",
   "False"
  ],
  [
   "openssl:no_sock",
   "False"
  ],
  [
   "openssl:no_srp",
   "False"
  ],
  [
   "openssl:no_srtp",
   "False"
  ],
  [
   "openssl:no_sse2",
   "False"
  ],
  [
   "openssl:no_ssl",
   "False"
  ],
  [
   "openssl:no_ssl3",
   "False"
  ],
  [
   "openssl:no_stdio",
   "False"
  ],
  [
   "openssl:no_tests",
   "False"
  ],
  [
   "openssl:no_threads",
   "False"
  ],
  [
   "openssl:no_tls1",
   "False"
  ],
  [
   "openssl:no_ts",
   "False"
  ],
  [
   "openssl:no_whirlpool",
   "False"
  ],
  [
   "openssl:openssldir",
   "None"
  ],
  [
   "openssl:shared",
   "False"
  ],
  [
   "xmlsec:shared",
   "True"
  ],
  [
   "xmlsec:with_gcrypt",
   "False"
  ],
  [
   "xmlsec:with_gnutls",
   "False"
  ],
  [
   "xmlsec:with_nss",
   "False"
  ],
  [
   "xmlsec:with_openssl",
   "True"
  ],
  [
   "xmlsec:with_xslt",
   "False"
  ],
  [
   "zlib:shared",
   "False"
  ]
 ],
 "root": {
  "name": null,
  "version": null,
  "user": null,
  "channel": null
 }
}